"name","image","type","color","size","print","corner_cut","pages","cost","c_id"
"Name Card","namecard.png","piece","Single","2/3.5 inch",NULL,NULL,NULL,"100","1"
"Name Card","namecard.png","piece","RGB","2/3.5 inch",NULL,NULL,NULL,"200","1"
"Ribbon","rb.png","piece","Single","Normal",NULL,NULL,NULL,"50","1"
"Ribbon","rb.png","piece","Single","Wide",NULL,NULL,NULL,"70","1"
"Ribbon","rb.png","piece","RGB","Normal",NULL,NULL,NULL,"70","1"
"Ribbon","rb.png","piece","RGB","Wide",NULL,NULL,NULL,"90","1"
"Ball Pen","p_ball.png","piece","Single",NULL,NULL,NULL,NULL,"50","12"
"Ball Pen","p_ball.png","piece","RGB",NULL,NULL,NULL,NULL,"80","12"
"Gel Pen","p_gel.png","piece","Single",NULL,NULL,NULL,NULL,"100","12"
"Gel Pen","p_gel.png","piece","RGB",NULL,NULL,NULL,NULL,"150","12"
"Key Ring","keyring.png","piece","Single","2.25/2.25 inch",NULL,NULL,NULL,"200","13"
"Key Ring","keyring.png","piece","Single","1.25/3 inch",NULL,NULL,NULL,"150","13"
"Key Ring","keyring.png","piece","RGB","2.25/2.25 inch",NULL,NULL,NULL,"300","13"
"Key Ring","keyring.png","piece","RGB","1.25/3 inch",NULL,NULL,NULL,"250","13"
"Mug","mug.png","piece","Single","S",NULL,NULL,NULL,"200","14"
"Mug","mug.png","piece","Single","M",NULL,NULL,NULL,"300","14"
"Mug","mug.png","piece","Single","L",NULL,NULL,NULL,"400","14"
"Mug","mug.png","piece","RGB","S",NULL,NULL,NULL,"300","14"
"Mug","mug.png","piece","RGB","M",NULL,NULL,NULL,"400","14"
"Mug","mug.png","piece","RGB","L",NULL,NULL,NULL,"500","14"
